# A tibble: 73 × 4
   changed key                    old_value                            new_value
   <chr>   <chr>                  <chr>                                <chr>    
 1 ✓       SponsorLogo            assets/_banners_logos_etc/Copy-of-N… https://…
 2 <NA>    UnitBanner             <NA>                                 https://…
 3 ✗       LessonTiles            https://storage.googleapis.com/gp-c… https://…
 4 ✓       LessonTiles            https://storage.googleapis.com/gp-c… https://…
 5 ✓       LessonTiles            https://storage.googleapis.com/gp-c… https://…
 6 ✗       LessonTiles            https://storage.googleapis.com/gp-c… https://…
 7 ✗       QRcode                 https://storage.googleapis.com/gp-c… https://…
 8 ✗       LearningEpaulette      https://storage.googleapis.com/gp-c… https://…
 9 ✗       LearningEpaulette_vert https://storage.googleapis.com/gp-c… https://…
10 ✗       SupportingMedia        https://storage.googleapis.com/gp-c… https://…
# ℹ 63 more rows
…
